^D:\LESSON 18\LESSON_18\LESSON_18\LESSON_18.CPP
/c /ZI /JMC /nologo /W3 /WX- /diagnostics:column /sdl /Od /Oy- /D WIN32 /D _DEBUG /D _CONSOLE /D _UNICODE /D UNICODE /Gm- /EHsc /RTC1 /MDd /GS /fp:precise /permissive- /Zc:wchar_t /Zc:forScope /Zc:inline /Fo"DEBUG\\" /Fd"DEBUG\VC142.PDB" /external:W3 /Gd /TP /analyze- /FC D:\LESSON 18\LESSON_18\LESSON_18\LESSON_18.CPP
^F:\FOR HOMEWORK\LESSON 18\LESSON_18\LESSON_18\LESSON_18.CPP
/c /ZI /JMC /nologo /W3 /WX- /diagnostics:column /sdl /Od /Oy- /D WIN32 /D _DEBUG /D _CONSOLE /D _UNICODE /D UNICODE /Gm- /EHsc /RTC1 /MDd /GS /fp:precise /permissive- /Zc:wchar_t /Zc:forScope /Zc:inline /Fo"DEBUG\\" /Fd"DEBUG\VC142.PDB" /external:W3 /Gd /TP /analyze- /FC F:\FOR HOMEWORK\LESSON 18\LESSON_18\LESSON_18\LESSON_18.CPP
